

  ## 1. हाल ही में प्रसिद्ध लोक गायक 'दप्पू खान' का निधन हुआ है ये राजस्थान राज्य से थे 
![DAPPU KHAN 'MORIYO'(L.N KHATRI MUSIC & MOVIE) - YouTube](https://i.ytimg.com/vi/hr0intcVgc0/maxresdefault.jpg)

  ## 2. हाल ही में रावलपिंडी स्टेडियम का नाम बदलकर शोएब अख्तर स्टेडियम के नाम पर रख दिया गया है 
![End of the line as 'Rawalpindi Express' is hit by five-year ban | The  Independent | The Independent](https://static.independent.co.uk/s3fs-public/thumbnails/image/2008/04/01/21/22112.bin?width=1200)

  ## 3. हाल ही में पृथ्वी शॉ 'विजय हज़ारे ट्रॉफी' के एकल संस्करण में 800 रन पुरे करने वाले पहले खिलाडी बन गए है 
![Prithvi Shaw Makes Case For Selection With 150 Ahead Of New Zealand Tests |  Cricket News](https://c.ndtvimg.com/2020-01/qv2if4u_prithvi-shaw-twitter_625x300_19_January_20.jpg)


