

 ## 1. हाल ही में फ़ोबस 2020 की सूचि में सबसे अधिक कमाई करने वालो की सूचि में 
ड्वेन जॉनसन शीर्ष पर रहे है
![Dwayne Johnson Named Hollywood's Highest-Paid Actor | PEOPLE.com](https://imagesvc.meredithcorp.io/v3/mm/image?url=https%3A%2F%2Fstatic.onecms.io%2Fwp-content%2Fuploads%2Fsites%2F20%2F2020%2F07%2F28%2Fdwayne-johnson.jpg)

 ## 2. हाल ही में RBI ने Positive Pay नामक सुविधा शुरू की है
![What are the main functions of Reserve Bank of India?](https://m.jagranjosh.com/imported/images/E/Articles/RBI-Jobs.jpg)

 # अगस्त के महत्तवपूर्ण दिन
 ### 09= **भारत छोड़ो दिवस-आदिवासी दिवस**
 ### 12= **अंतर्राष्ट्रीय युवा दिवस(2000)**
 ### 29= **राष्ट्रीय खेल दिवस**

 ___
 # आज का सवाल 

 ### **सत्यशोधक समाज की स्थापना किसने की थी ?**
![सत्यशोधक समाज एवं ज्योतिबा फुले](https://4.bp.blogspot.com/-wWNs1QeMNb8/WwTrjK5ekvI/AAAAAAAAFnA/JWZrHWalGPA179v1gWAvtStcH-IzfyUgACKgBGAs/s1600/jyotiba.jpg)