

  ## 1. 28 सितम्बर को विश्व रेबीज दिवस मनाया
![World Rabies Day 2020 - National Awareness Days Calendar 2020 & 2021](https://www.awarenessdays.com/wp-content/uploads/2019/07/world-rabies-day-2016-infographic.png)

  ## 2. हाल ही में जी एस अमूर का निधन हुआ है ये एक प्रसिद्ध साहित्यकार थे
  ![Versatile Kannada writer-critic GS Amur dies at 95 | People News | Zee News](https://english.cdn.zeenews.com/sites/default/files/2020/09/29/889130-gs-amur.jpg)
 ___
 # आज का सवाल 

 ### **दल बदल विरोधी कानून(Anti Defection Law) से संविधान का कौन सा संशोधन सम्बंधित है ?**
 ![why Anti-defection law is not implemented to cross over MLAs - Sakshi](https://m.sakshi.com/sites/default/files/styles/cinema_main/public/article_images/2017/09/5/41490472619_625x300.jpg?itok=FE2bEySc)

