

  ## 1. हाल ही में इजराइल देश ने कोरोना वायरस 'ग्रीन पास' प्रणाली शुरू की है 
![Israel's borders explained in maps - BBC News](https://ichef.bbci.co.uk/news/640/cpsprodpb/8667/production/_114370443_05_1982_after_israel-egypt_peace_treaty_640-nc.png)

  ## 2. हाल ही में 'ग्रेटर तिप्रालैंड' विवाद बहुत ज्यादा खबरों में है ये त्रिपुरा राज्य से सम्बंधित है 
![File:Northeast india map.png - Wikimedia Commons](https://upload.wikimedia.org/wikipedia/commons/d/d3/Northeast_india_map.png)
