

  ## 1. हाल ही में भारत ने 'वीजा सुविधा' और 'चमड़ा प्रौद्योगिकी' के संबंध में इथियोपिया देश के साथ समझौता किया है 
![Image result for ethiopia map](https://cdn.britannica.com/s:690x388,c:crop/31/31-050-66AA1DCA/Ethiopia-map-features-locator.jpg)



