

  ## 1. हाल ही में अभिनेता इरफ़ान खान को अंतराष्ट्रीय फिल्म फेयर अवार्ड 2021 में बेस्ट अभिनेता का पुरस्कार दिया गया है 
![Gone too soon': PM Modi, Amitabh Bachchan, Sachin Tendulkar mourn Irrfan  Khan's untimely demise](https://akm-img-a-in.tosshub.com/sites/btmt/images/stories/irrfan_khan_660_290420012212.jpg)

