

  ## 1. हाल ही में तुर्की देश में एक बड़े प्राकृतिक गैस की खोज की गयी है
![map of turkey and surrounding countries | Political map - Turkey ...](https://i.pinimg.com/originals/42/aa/77/42aa7754278ca2aaa87545cbb0daa798.png)

  ## 2. हाल ही में इजराइल ने पहली बार UAE देश के साथ टेलीफोन सेवा शुरू की है
![Saudi & UAE Stock Exchange Websites Attacked by Israeli Hackers](https://www.hackread.com/wp-content/uploads/2012/01/arab-israel-cyber-war.gif)

 # अगस्त के महत्तवपूर्ण दिन
 ### 09= **भारत छोड़ो दिवस-आदिवासी दिवस**
 ### 12= **अंतर्राष्ट्रीय युवा दिवस(2000)**
 ### 29= **राष्ट्रीय खेल दिवस**

 ___
 # आज का सवाल 

 ### **भारतीय संविधान का सबसे बड़ा एकांकी स्रोत कौन सा अधिनियम है ?**
 ![Vibrant democracy, dormant Parliament](https://images.livemint.com/rf/Image-621x414/LiveMint/Period2/2017/07/14/Photos/Opinion/Parliament-kgjD--621x414@LiveMint.jpg)