{
  "1": [
    {
      "date": 4,
      "info": "विश्व ब्रेल(Braille) दिवस"
    },
    {
      "date": 10,
      "info": "विश्व हिन्दी दिवस"
    },
    {
      "date": 12,
      "info": "राष्ट्रीय युवा दिवस"
    },
    {
      "date": 15,
      "info": "थल सेना दिवस"
    },
    {
      "date": 24,
      "info": "राष्ट्रीय बालिका दिवस, उत्तर प्रदेश दिवस"
    },
    {
      "date": 25,
      "info": "राष्ट्रीय पर्यटन दिवस, मतदाता दिवस (2011)"
    },
    {
      "date": 28,
      "info": "डाटा (Data) सुरक्षा दिवस"
    },
    {
      "date": 30,
      "info": "शहीद दिवस, सर्वोदय दिवस"
    }
  ],
  "2": [
    {
      "date": 2,
      "info": "विश्व आर्द्रभूमि(Wetland) दिवस"
    },
    {
      "date": 4,
      "info": "विश्व कैंसर दिवस"
    },
    {
      "date": 24,
      "info": "केंद्रीय उत्पाद शुल्क(Exice) दिवस(1944)"
    },
    {
      "date": 28,
      "info": "राष्ट्रीय विज्ञान दिवस"
    }
  ],
  "3": [
    {
      "date": 3,
      "info": "वन्यजीव दिवस"
    },
    {
      "date": 8,
      "info": "अंतराष्ट्रीय महिला दिवस(1909)"
    },
    {
      "date": 15,
      "info": "विश्व उपभोक्ता अधिकार दिवस"
    },
    {
      "date": 22,
      "info": "विश्व जल दिवस"
    },
    {
      "date": 23,
      "info": "शहीद दिवस"
    },
    {
      "date": 24,
      "info": "विश्व TB दिवस"
    }
  ],
  "4": [
    {
      "date": 2,
      "info": "विश्व आत्मकेंद्रित(Autism) जागरूकता दिवस"
    },
    {
      "date": 7,
      "info": "विश्व स्वास्थ दिवस(1950)"
    },
    {
      "date": 10,
      "info": "होमियोपैथी दिवस"
    },
    {
      "date": 18,
      "info": "विश्व धरोहर(Heritage) दिवस"
    },
    {
      "date": 21,
      "info": "भारतीय नागरिक सेवा दिवस"
    },
    {
      "date": 22,
      "info": "पृथ्वी दिवस"
    },
    {
      "date": 24,
      "info": "पंचायत दिवस"
    },
    {
      "date": 25,
      "info": "विश्व मालेरिया दिवस(2008)"
    }
  ],
  "5": [
    {
      "date": 1,
      "info": "अंतराष्ट्रीय मज़दूर दिवस"
    },
    {
      "date": 8,
      "info": "िश्व रेड क्रॉस दिवस"
    },
    {
      "date": 11,
      "info": "राष्ट्रीय प्रौद्योगिकी(Technology) दिवस"
    },
    {
      "date": 21,
      "info": "आतंकवादी विरोधी दिवस(1991)"
    },
    {
      "date": 22,
      "info": "जैव विविधता दिवस"
    },
    {
      "date": 24,
      "info": "राष्ट्रमंडल(Commonwealth) दिवस"
    },
    {
      "date": 31,
      "info": "विश्व तंबाकू निषेध दिवस"
    }
  ],
  "6": [
    {
      "date": 5,
      "info": "विश्व पर्यावरण दिवस(1972-73)"
    },
    {
      "date": 21,
      "info": "विश्व योग दिवस(2014)"
    },
    {
      "date": 23,
      "info": "अंतर्राष्ट्रीय ओलिंपिक दिवस(1927)"
    },
    {
      "date": 29,
      "info": "सांख्यिकी दिवस"
    },
    {
      "date": 24,
      "info": "राष्ट्रमंडल(Commonwealth) दिवस"
    }
  ],
  "7": [
    {
      "date": 1,
      "info": "GST दिवस, डॉक्टर्स दिवस"
    },
    {
      "date": 4,
      "info": "अमेरिका स्वतंत्रता दिवस(1776)"
    },
    {
      "date": 11,
      "info": "विश्व जनसँख्या दिवस"
    },
    {
      "date": 18,
      "info": "नेल्सन मंडेला अंतर्राष्ट्रीय दिवस"
    },
    {
      "date": 26,
      "info": "कारगिल विजय दिवस"
    },
    {
      "date": 29,
      "info": "विश्व बाघ दिवस(1973)"
    }
  ],
  "8": [
    {
      "date": 9,
      "info": "आदिवासी दिवस"
    },
    {
      "date": 12,
      "info": "अंतर्राष्ट्रीय युवा दिवस (2000)"
    },
    {
      "date": 29,
      "info": "राष्ट्रीय खेल दिवस"
    }
  ],
  "9": [
    {
      "date": 5,
      "info": "शिक्षक दिवस, संस्कृत दिवस"
    },
    {
      "date": 14,
      "info": "हिंदी दिवस(1953)"
    },
    {
      "date": 15,
      "info": "इंजीनियर्स दिवस"
    },
    {
      "date": 16,
      "info": "विश्व ओजोन (O3) दिवस (1994)"
    }
  ],
  "10": [
    {
      "date": 2,
      "info": "अहिंसा दिवस"
    },
    {
      "date": 5,
      "info": "विश्व शिक्षक दिवस"
    },
    {
      "date": 8,
      "info": "वायु सेना दिवस(1932)"
    },
    {
      "date": 24,
      "info": "संयुक्त राष्ट्र संघ दिवस, पोलियो दिवस"
    },
    {
      "date": 28,
      "info": "राष्ट्रीय आयुर्वेदा दिवस"
    },
    {
      "date": 31,
      "info" : "राष्ट्रीय एकता दिवस"
    }
  ],
  "11": [
    {
      "date": 9,
      "info" : "कानून दिवस"
    },
    {
      "date": 11,
      "info" : "शिक्षा दिवस (2009)"
    },
    {
      "date": 14,
      "info" : "विश्व मधुमेह (Diabetes) दिवस (1991)"
    },
    {
      "date": 24,
      "info" : "NCC दिवस"
    },
    {
      "date": 26,
      "info" : "संविधान दिवस (2015), विश्व पर्यावरण संरक्षण दिवस"
    }
  ],
  "12": [
    {
      "date": 1,
      "info" : "सविश्व AIDS दिवस"
    },
    {
      "date": 2,
      "info" : "विश्व कंप्यूटर साक्षरता दिवस (2001)"
    },
    {
      "date": 4,
      "info" : "नौसेना दिवस"
    },
    {
      "date": 7,
      "info" : "अर्ध सैनिक झंडा दिवस"
    },
    {
      "date": 10,
      "info" : "मानव अधिकार दिवस"
    },
    {
      "date": 22,
      "info" : "राष्ट्रीय गणित दिवस"
    },
    {
      "date": 23,
      "info" : "किसान दिवस"
    },
    {
      "date": 24,
      "info" : "राष्ट्रीय उपभोक्ता दिवस"
    },
    {
      "date": 25,
      "info": "सुशाषन दिवस (2014)"
    }
  ]
}
