

  ## 1. हाल ही में UNICEF इंडिया ने बच्चो के अधिकार के अभियान(फॉर एव्री चाइल्ड) के सेलिब्रिटी एडवोकेट के रूप में आयुष्मान खुराना को चुना है
![Ayushmann Khurrana: The gifted star of offbeat movies](https://gumlet.assettype.com/nationalherald%2F2019-10%2F0fb84108-34d7-4b8d-8ff5-9eff296f86e8%2FAyushmann_Khurana.jpg?rect=0%2C0%2C1280%2C720&auto=format%2Ccompress&w=400&dpr=2.6)

 ___
 # आज का सवाल 

 ### **केंद्र सरकार के व्यय को नियंत्रित करने की शक्ति किसमे निहित हैैेे ?**
 ![Multicolor Indian Political Map (Hindi) - Vinyl Print Wall Chart, Size:  36x48 Inches, Rs 3200 /piece | ID: 16258831173](https://5.imimg.com/data5/SL/VA/MY-13267192/indian-political-map-28hindi-29-vinyl-print-wall-chart-500x500.jpg)